Windows,N,S,N,5
Windows,N,S,N,5
Windows,N,S,N,5
Windows,N,S,N,5
,N,N,N,
Mac,S,N,N,7
Mac,S,N,N,7
Mac,S,N,N,7
Mac,S,N,N,7
Mac,S,N,N,7
Mac,S,N,N,7
Windows,S,N,N,8
Windows,S,N,N,8
Windows,S,N,N,8
Windows,S,N,N,8
Windows,S,N,N,8
Windows,S,N,N,8
Windows,S,N,N,8
Windows,S,N,N,8
Windows,S,N,N,8
Windows,S,N,N,8
Windows,S,N,N,8
Windows,S,N,N,8
Windows,S,N,N,8
Windows,S,N,N,8
Windows,S,N,N,8
Windows,S,N,N,8
Windows,S,N,N,8
Windows,S,N,N,8
,N,N,N,
Linux,N,N,S,2
Linux,N,N,S,2
Linux,N,N,S,2
Linux,N,N,S,2
Linux,N,N,S,2
Linux,N,N,S,2
Linux,N,N,S,2
Linux,N,N,S,2
Linux,N,N,S,2
Linux,N,N,S,2
Linux,N,N,S,2
Linux,N,N,S,2
Windows,S,N,N,2
Mac,N,S,N,4
Windows,S,N,N,17
Windows,N,S,N,2
Linux,N,N,S,4
Windows,S,N,N,2
Windows,N,S,N,2
Windows,N,N,S,6
Windows,N,N,S,6
Linux,N,S,N,8
Linux,N,S,N,4
Mac,N,N,S,10
Linux,S,N,N,13
